Final Project: Exploring the MovieLens dataset
…
Looking at our data, we have 3 data frames. The movies table stores a list of movies, their release year, their genre categorization(s), and a variable called movieId which is used to reference data in the other two frames. The ratings data frame has the same movieId, as well as a userId, rating, and timestamp to show which user gave a movie what rating and when. The rating is on a scale of 0.5 to 5, with increments of 0.5. The tags data frame is identical to the ratings table, but instead of a rating it stores a tag that a user applied to the moviea custom string.

Tidying the data

Before we can do any exploratory data analysis, we must clean up the data frames and manipulate variables to make the data easier to analyze. Lets begin by tidying the movies dataframe, movies_df. First, we will extract the release year of each movie from the parentheses in the title column using the mutate function in combination with the stringr package. Ex: extract \(1995\) from Heat (1995).

To do this, we will use a regular expression \\(([0-9]{4})\\), which matches the parentheses on the outside, with a group for matching the 4 digits within. The str_match function returns a character matrix with the full match in the first column and the matching groups, in order, in the subsequent columns.

year_re <- "\\(([0-9]{4})\\)"
movies_df <- movies_df %>%
  mutate(year=str_match(title, year_re)[,2]) %>%
  mutate(year=as.integer(year))
movies_df

## # A tibble: 9,125 x 4
##    movieId title                              genres                  year
##      <int> <chr>                              <chr>                  <int>
##  1       1 Toy Story (1995)                   Adventure|Animation|C~  1995
##  2       2 Jumanji (1995)                     Adventure|Children|Fa~  1995
##  3       3 Grumpier Old Men (1995)            Comedy|Romance          1995
##  4       4 Waiting to Exhale (1995)           Comedy|Drama|Romance    1995
##  5       5 Father of the Bride Part II (1995) Comedy                  1995
##  6       6 Heat (1995)                        Action|Crime|Thriller   1995
##  7       7 Sabrina (1995)                     Comedy|Romance          1995
##  8       8 Tom and Huck (1995)                Adventure|Children      1995
##  9       9 Sudden Death (1995)                Action                  1995
## 10      10 GoldenEye (1995)                   Action|Adventure|Thri~  1995
## # ... with 9,115 more rows
…
These rows are either TV shows with a span of years associated with them rather than a single year, or just do not have a release year. Since this data is either not relevant or just hard to analyze compared to the rest of the data (and there are only 6 entries like this out of 9125), we will simply drop these entries.

movies_df <- movies_df %>% filter(!is.na(year))

Next, lets use the same method as before to remove the year from the titles just so that the column references only one attribute, rather than two combined.

movie_re <- "^(.+) \\([0-9]{4}\\)"

movies_df <- movies_df %>%
  mutate(title=str_match(title,movie_re)[,2])
movies_df

## # A tibble: 9,119 x 4
##    movieId title                       genres                         year
##      <int> <chr>                       <chr>                         <int>
##  1       1 Toy Story                   Adventure|Animation|Children~  1995
##  2       2 Jumanji                     Adventure|Children|Fantasy     1995
##  3       3 Grumpier Old Men            Comedy|Romance                 1995
##  4       4 Waiting to Exhale           Comedy|Drama|Romance           1995
##  5       5 Father of the Bride Part II Comedy                         1995
##  6       6 Heat                        Action|Crime|Thriller          1995
##  7       7 Sabrina                     Comedy|Romance                 1995
##  8       8 Tom and Huck                Adventure|Children             1995
##  9       9 Sudden Death                Action                         1995
## 10      10 GoldenEye                   Action|Adventure|Thriller      1995
## # ... with 9,109 more rows
…
         fantasy=str_detect(genres, "Fantasy"),
         filmnoir=str_detect(genres, "Film-Noir"),
         horror=str_detect(genres, "Horror"),
         musical=str_detect(genres, "Musical"),
         mystery=str_detect(genres, "Mystery"),
         romance=str_detect(genres, "Romance"),
         scifi=str_detect(genres, "Sci-Fi"),
         thriller=str_detect(genres, "Thriller"),
         war=str_detect(genres, "War"),
         western=str_detect(genres, "Western"),
         no_genre=str_detect(genres, "(no genres listed)")) %>%
  select(-genres)
movies_df

## # A tibble: 9,119 x 22
##    movieId title     year action adventure animation children comedy crime
##      <int> <chr>    <int> <lgl>  <lgl>     <lgl>     <lgl>    <lgl>  <lgl>
##  1       1 Toy Sto~  1995 F      T         T         T        T      F    
##  2       2 Jumanji   1995 F      T         F         T        F      F    
##  3       3 Grumpie~  1995 F      F         F         F        T      F    
##  4       4 Waiting~  1995 F      F         F         F        T      F    
##  5       5 Father ~  1995 F      F         F         F        T      F    
##  6       6 Heat      1995 T      F         F         F        F      T    
##  7       7 Sabrina   1995 F      F         F         F        T      F    
##  8       8 Tom and~  1995 F      T         F         T        F      F    
##  9       9 Sudden ~  1995 T      F         F         F        F      F    
## 10      10 GoldenE~  1995 T      T         F         F        F      F    
## # ... with 9,109 more rows, and 13 more variables: documentary <lgl>,
## #   drama <lgl>, fantasy <lgl>, filmnoir <lgl>, horror <lgl>,
## #   musical <lgl>, mystery <lgl>, romance <lgl>, scifi <lgl>,
## #   thriller <lgl>, war <lgl>, western <lgl>, no_genre <lgl>

The ratings and tags tables need some alteration as well (although we will not be using the tags table in our current analysis). From the html description of the dataset: Timestamps represent seconds since midnight Coordinated Universal Time (UTC) of January 1, 1970. (this is also known as UNIX Epoch time) So, we must convert the timestamp from seconds to Datetime objects. The lubridate package contains the function as_datetime which, combined with the variable lubridate::origin (the Epoch time origin), does this for us.

ratings_df <- ratings_df %>%
  mutate(time=as_datetime(timestamp, origin=lubridate::origin, tz="UTC")) %>%
  select(-timestamp)
ratings_df

## # A tibble: 100,004 x 4
##    userId movieId rating time               
##     <int>   <int>  <dbl> <dttm>             
##  1      1      31   2.50 2009-12-14 02:52:24
##  2      1    1029   3.00 2009-12-14 02:52:59
##  3      1    1061   3.00 2009-12-14 02:53:02
##  4      1    1129   2.00 2009-12-14 02:53:05
##  5      1    1172   4.00 2009-12-14 02:53:25
##  6      1    1263   2.00 2009-12-14 02:52:31
##  7      1    1287   2.00 2009-12-14 02:53:07
##  8      1    1293   2.00 2009-12-14 02:52:28
##  9      1    1339   3.50 2009-12-14 02:52:05
## 10      1    1343   2.00 2009-12-14 02:52:11
## # ... with 99,994 more rows

tags_df <- tags_df %>%
  mutate(time=as_datetime(timestamp, origin=lubridate::origin, tz="UTC")) %>%
  select(-timestamp)

tags_df

## # A tibble: 1,296 x 4
##    userId movieId tag                     time               
##     <int>   <int> <chr>                   <dttm>             
##  1     15     339 sandra 'boring' bullock 2006-01-29 12:29:30
##  2     15    1955 dentist                 2007-10-26 21:44:21
##  3     15    7478 Cambodia                2007-02-04 03:49:57
##  4     15   32892 Russian                 2007-02-04 21:59:26
##  5     15   34162 forgettable             2006-03-03 13:16:05
##  6     15   35957 short                   2006-03-03 13:17:53
##  7     15   37729 dull story              2006-03-03 13:16:46
##  8     15   45950 powerpoint              2007-01-24 05:24:51
##  9     15  100365 activist                2015-03-09 04:43:40
## 10     15  100365 documentary             2015-03-09 04:43:40
## # ... with 1,286 more rows

Our next step will be to use the ratings from the ratings data frame and calculate an average score for each movie to store in the movies data frame. To do this, our first step will be to use the group_by and summarize functions on the ratings data. During this step, we will also count the number of user ratings for each movie and store it in a column called num_ratings.

ratings_df_avg <- ratings_df %>%
  group_by(movieId) %>%
  summarize(average_rating=mean(rating), num_ratings=n())
ratings_df_avg

## # A tibble: 9,066 x 3
##    movieId average_rating num_ratings
##      <int>          <dbl>       <int>
##  1       1           3.87         247
##  2       2           3.40         107
##  3       3           3.16          59
##  4       4           2.38          13
##  5       5           3.27          56
##  6       6           3.88         104
##  7       7           3.28          53
##  8       8           3.80           5
##  9       9           3.15          20
## 10      10           3.45         122
## # ... with 9,056 more rows
…
To make sure that our data is fully tided, lets see if there are any films without user ratings, just for future reference. We will also create a new data frame that filters these movies out, since assigning an arbitrary average rating to a movie is inaccurate as there is no way to predict the perceived quality of a movie with no user ratings recorded.

movies_df %>% filter(is.na(average_rating))

## # A tibble: 58 x 24
##    movieId title     year action adventure animation children comedy crime
##      <int> <chr>    <int> <lgl>  <lgl>     <lgl>     <lgl>    <lgl>  <lgl>
##  1    4712 Wild Ch~  1970 F      F         F         F        F      F    
##  2    4763 Iron La~  2000 F      F         F         F        T      F    
##  3    5169 Scarlet~  1945 F      F         F         F        F      F    
##  4    5289 Body an~  1947 F      F         F         F        F      F    
##  5    5984 Story o~  1975 F      F         F         F        F      F    
##  6    6229 Two-Lan~  1971 F      F         F         F        F      F    
##  7    6515 You Onl~  1937 F      F         F         F        F      T    
##  8    6683 Fire      1996 F      F         F         F        F      F    
##  9    6830 Sudden ~  1952 F      F         F         F        F      F    
## 10    7243 Intoler~  1916 F      F         F         F        F      F    
## # ... with 48 more rows, and 15 more variables: documentary <lgl>,
## #   drama <lgl>, fantasy <lgl>, filmnoir <lgl>, horror <lgl>,
## #   musical <lgl>, mystery <lgl>, romance <lgl>, scifi <lgl>,
## #   thriller <lgl>, war <lgl>, western <lgl>, no_genre <lgl>,
## #   average_rating <dbl>, num_ratings <int>
…
